Dashboard
…
Filter all days with snow and precipitation in 2009 and 2010, and
with non null values for temperatures.

data("ny_noaa")

noaa = ny_noaa %>% 
  drop_na(tmax,tmin,snow,prcp) %>% 
  mutate(tmax = as.numeric(tmax)/10, tmin = as.numeric(tmin)/10, prcp = as.numeric(prcp)/10) %>% 
  filter(snow > 0 & prcp > 0 & year(date) >= 2009) %>% 
  select(-snwd) 

noaa 

## # A tibble: 6,193 × 6
##    id          date        prcp  snow  tmax  tmin
##    <chr>       <date>     <dbl> <int> <dbl> <dbl>
##  1 USC00300023 2009-01-01   0.5    89  -5.6 -15  
##  2 USC00300023 2009-01-07   2.8    38   0.6 -11.7
##  3 USC00300023 2009-01-09   0.3    13   2.2  -8.3
##  4 USC00300023 2009-01-14   0.3    25   0.6 -15  
##  5 USC00300023 2009-01-15   0.3    38 -10   -15.6
##  6 USC00300023 2009-01-21   2.5    13  -6.1 -19.4
##  7 USC00300023 2009-01-28   0.5    76  -4.4 -11.7
##  8 USC00300023 2009-01-29   1     114  -3.3  -9.4
##  9 USC00300023 2009-01-31   2.5    25   2.8 -18.3
## 10 USC00300023 2009-02-19   0.5    51   2.8  -9.4
## # ℹ 6,183 more rows
…
